{
  "workflowForm": {
    "NAITTransfer": {
      "": false,
      "delivered": false,
      "complete": false,
      "not applicable": false
    },
    "animalRecordTransfer": {
      "": false,
      "delivered": false,
      "complete": false,
      "not applicable": false
    },
    "emailedToVendor": {
      "": false,
      "not applicable": false,
      "complete": false
    },
    "emailedToPurchaser": {
      "": false,
      "not applicable": false,
      "complete": false
    },
    "sentToServer": {
      "": false,
      "ready": false,
      "complete": false
    },
    "methodOfPayment": {
      "": false,
      "EFT": false,
      "cheque": false
    }
  },
  "vendorForm": {
    "entityName": "",
    "entityType": {
      "company": false,
      "trust": false,
      "partnership": false,
      "individual": false,
      "other": false
    },
    "farmSourceLivestockAccount": "",
    "phoneNumber": "",
    "mobileNumber": "",
    "agentCode": "",
    "agentName": "",
    "rebateRate": "",
    "emailAddress": "",
    "fullName": "",
    "dateOfBirth": "",
    "postalAddress": "",
    "GSTNumber": "",
    "NAITNumber": "",
    "thirdParty": {
      "yes": false,
      "no": false
    },
    "security": ""
  },
  "purchaserForm": {
    "entityName": "",
    "entityType": {
      "company": false,
      "trust": false,
      "partnership": false,
      "individual": false,
      "other": false
    },
    "farmSourceLivestockAccount": "",
    "phoneNumber": "",
    "mobileNumber": "",
    "agentCode": "",
    "agentName": "",
    "rebateRate": "",
    "emailAddress": "",
    "fullName": "",
    "dateOfBirth": "",
    "postalAddress": "",
    "GSTNumber": "",
    "NAITNumber": ""
  },
  "lotsForm": {
    "lotProducts": {
      "AG": "AG - ",
      "B": "B - Bull",
      "BLK": "BLK - Bullock",
      "BLY": "BLY - WHOLE CROP BARLEY",
      "BONER": "BONER - Cow",
      "C": "C - Cow",
      "CAT": "CAT - Cattle",
      "CC": "CC - Dairy Cow & Calf",
      "CL": "CL - Calf",
      "DB": "DB - Dairy Bull",
      "DCCO": "DCCO - Dairy Cow",
      "E": "E - Ewe",
      "EYH": "EYH - Yearling Dairy Heifer (Export)",
      "GO": "GO - Goat",
      "GRZ": "GRZ - GRAZING",
      "HC": "HC - Heifer & Calf",
      "HDG": "HDG - HEADAGE",
      "HFR": "HFR - Dairy Heifer",
      "HFRB": "HFRB - Heifer",
      "HGT": "HGT - Hogget",
      "HLG": "HLG - HAYLAGE BALE",
      "ICDC": "ICDC - In Calf Dairy Cow",
      "ICDH": "ICDH - In Calf Dairy Heifer",
      "IMDC": "IMDC - In Milk Dairy Cow",
      "L": "L - Lamb",
      "LLG": "LLG - BALE LUCERNE BALAGE",
      "MTDC": "MTDC - MT Dairy Cow",
      "MTDH": "MTDH - MT Dairy Heifer",
      "OX": "OX - Ox",
      "PIG": "PIG - Pig",
      "RAM": "RAM - Ram",
      "REB": "REB - REBATE",
      "SCROP": "SCROP - WHOLE CROP STANDING",
      "SHP": "SHP - Sheep",
      "SK": "SK - Skin",
      "STG": "STG - Stag",
      "STR": "STR - Steer",
      "SU": "SU - ",
      "VAL": "VAL - VALUATION",
      "VLR": "VLR - Vealer",
      "W": "W - Wether",
      "WBB": "WBB - Weaner Beef Bull",
      "WBH": "WBH - Weaner Beef Heifer",
      "WBS": "WBS - Weaner Beef Steer",
      "WDB": "WDB - Weaner Dairy Bull",
      "WDH": "WDH - Weaner Dairy Heifer",
      "WDS": "WDS - Weaner Steer",
      "WNR": "WNR - Weaner",
      "YBB": "YBB - Yearling Beef Bull",
      "YBH": "YBH - Yearling Beef Heifer",
      "YBS": "YBS - Yearling Beef Steer",
      "YDB": "YDB - Yearling Dairy Bull",
      "YDH": "YDH - Yearling Dairy Heifer",
      "YDS": "YDS - Yearling Beef Steer",
      "YRL": "YRL - Yearling"
    },
    "stockDescriptionTable": []
  },
  "auditForm": {
    "auditData": []
  },
  "notesForm": {
    "internalNotes": ""
  },
  "saleNoteDetailsForm": {
    "formVersion": "1.0.29",
    "serverStatus": {
      "status": "unsynced",
      "message": "Form has not yet been saved to server"
    },
    "saleNoteNumber": ""
  },
  "saleNoteForm": {
    "formVersion": "1.0.29",
    "serverStatus": {
      "status": "unsynced",
      "message": "Form has not yet been saved to server"
    },
    "saleNoteNumber": "",
    "vendorSignature": "",
    "purchaserSignature": "",
    "vendorHerdPTPTCode": "",
    "purchaserHerdPTPTCode": "",
    "inCalfWarranty": {
      "yes": false,
      "no": false
    },
    "deliveryDate": "",
    "commissionRate": "",
    "commissionType": {
      "per head": false,
      "percent": false
    },
    "commissionPayable": {
      "vendor": false,
      "purchaser": false
    }
  }
}
